Permutation tests and Power analysis
…
Permutation tests

The first objective of this document is to teste whether the data presented in Figure 9a of Thor et al are sensitive to single values causing the \(p\)-value. We will test this with a permutation and bootstrap version of the Welch Two-Sample \(t\)-test as provided in the MKinfer package.

Load the data

library(MKinfer)
library(readxl)

df <- read_excel("../data/352511_3_source_data_3424401_q9ndxw.xlsx", sheet = 'Ext Data Fig 9a', range = "BN5:BO34")

df

## # A tibble: 29 x 2
##    `Col-0` `osca1.3/1.7`
##      <dbl>         <dbl>
##  1 2731.           1514.
##  2 -543.            557.
##  3 6348.           -230.
##  4 -932.           3838.
##  5 3080.            737.
##  6 1368.           3614.
##  7 2465.           4879.
##  8   -5.05         4099.
##  9 3171.           1786.
## 10 2761.           1943.
## #  with 19 more rows
…
